{
    "workbench.colorTheme": "GitHub Dark High Contrast",
    "editor.fontFamily": "FiraCode Nerd Font Mono",
    "editor.fontLigatures": true,
    "zenMode.hideLineNumbers": false,
    "files.autoSave": "onFocusChange",
    "zenMode.hideTabs": false,
    "editor.renderWhitespace": "all",
    // "glassit.alpha": 220,
    "zenMode.centerLayout": false,
    "zenMode.hideStatusBar": false,
    "diffEditor.ignoreTrimWhitespace": false,
    "editor.cursorBlinking": "phase",
    "editor.cursorStyle": "block",
    "indentRainbow.colors": [
        "rgba(16,16,16,0.1)",
        "rgba(16,16,16,0.2)",
        "rgba(16,16,16,0.3)",
        "rgba(16,16,16,0.4)",
        "rgba(16,16,16,0.5)",
        "rgba(16,16,16,0.6)",
        "rgba(16,16,16,0.7)",
        "rgba(16,16,16,0.8)",
        "rgba(16,16,16,0.9)",
        "rgba(16,16,16,1.0)"
    ],

    "coverage-gutters.showLineCoverage": true,
    "coverage-gutters.coverageReportFileName": "coverage.xml",
    "coverage-gutters.remotePathResolve": [
        "./", "/var/www/services/shipping"
    ],
    "editor.lineNumbers": "relative",
    "editor.stickyScroll.enabled": true,
    "editor.smoothScrolling": true
}